…
# Paso 2: Calcular las pérdidas/ganancias por unidad de plaza
territorios_perdidas <- territorios_perdidas %>%
  mutate(perdida_por_unidad = venta_total / unidades_plaza_total)

# Paso 3: Ordenar los territorios por pérdida/ganancia por unidad de plaza
territorios_ordenados <- territorios_perdidas %>%
  arrange(perdida_por_unidad)

# Mostrar los territorios ordenados
print(territorios_ordenados)
```

    ## # A tibble: 104 × 4
    ##    Territorio venta_total unidades_plaza_total perdida_por_unidad
    ##    <chr>            <dbl>                <dbl>              <dbl>
    ##  1 13b223c9          49.9                   11               4.54
    ##  2 e6fd9da9          18.2                    4               4.54
    ##  3 e034e3c8         247.                    49               5.04
    ##  4 cf970512        6375.                  1166               5.47
    ##  5 67696f68       47176.                  7734               6.10
    ##  6 6c8335a4        3594.                   578               6.22
    ##  7 d02bf225        1315.                   202               6.51
    ##  8 0bfe69a0         384.                    58               6.63
    ##  9 5d43dd39        6479.                   976               6.64
    ## 10 1a9b2b4c        6437.                   939               6.86
    ## # ℹ 94 more rows
